CONS_HORA,CLIENTE,Solar_p001,Solar_p005,Solar_p032,Solar_p05,Solar_p068,Solar_p095,Solar_p099,Demanda_p001,Demanda_p005,Demanda_p032,Demanda_p05,Demanda_p068,Demanda_p095,Demanda_p099
0,CENTRO INTERNACIONAL DE AGRICULTURA TROPICAL - CIAT,0.0,0.0,0.0,0.0,0.0,0.0,0.0,391.10375999999997,409.5612,437.34096,452.28599999999994,561.1132800000001,683.3987999999999,732.2354399999999
1,CENTRO INTERNACIONAL DE AGRICULTURA TROPICAL - CIAT,0.0,0.0,0.0,0.0,0.0,0.0,0.0,388.10376,403.49580000000003,432.13343999999995,446.21999999999997,537.78384,681.0126,745.51272
2,CENTRO INTERNACIONAL DE AGRICULTURA TROPICAL - CIAT,0.0,0.0,0.0,0.0,0.0,0.0,0.0,236.29307999999997,401.274,429.97344,443.904,513.6720000000001,681.8496,731.51868
3,CENTRO INTERNACIONAL DE AGRICULTURA TROPICAL - CIAT,0.0,0.0,0.0,0.0,0.0,0.0,0.0,195.8592,400.5642,427.60128,441.762,502.09344,664.1490000000001,731.90388
4,CENTRO INTERNACIONAL DE AGRICULTURA TROPICAL - CIAT,0.0,0.0,0.0,0.0,0.0,0.0,0.0,42.33239999999995,398.55719999999997,428.028,436.86,445.5744,473.6892,532.8371999999998
5,CENTRO INTERNACIONAL DE AGRICULTURA TROPICAL - CIAT,0.0,0.0,0.0,0.0,0.0,0.010799999999999728,0.2747999999999984,303.26687999999996,531.5448000000001,576.6177600000001,587.982,596.51136,619.02,653.5821599999999
6,CENTRO INTERNACIONAL DE AGRICULTURA TROPICAL - CIAT,0.0,1.7856,10.08192,14.172,21.484800000000003,45.89759999999999,54.597119999999975,330.87552,551.8266,612.86496,636.186,652.2336,698.7131999999999,731.2962
7,CENTRO INTERNACIONAL DE AGRICULTURA TROPICAL - CIAT,0.0,15.522000000000002,75.56927999999999,100.5,132.15264000000002,191.0292,222.8875199999999,229.19076,561.9552,703.27968,843.558,878.76144,946.6446,991.9037999999999
8,CENTRO INTERNACIONAL DE AGRICULTURA TROPICAL - CIAT,0.0,53.7252,182.57471999999999,230.44799999999998,279.44064000000003,370.47119999999995,415.14143999999993,200.12795999999994,611.1582,886.3224,1145.808,1223.40576,1393.6644,1425.2323199999998
9,CENTRO INTERNACIONAL DE AGRICULTURA TROPICAL - CIAT,0.0,69.4092,327.38304,376.812,436.97087999999997,517.2479999999999,555.70992,602.39664,638.0250000000001,1008.71952,1234.8899999999999,1304.8824,1473.5052,1508.54028
10,CENTRO INTERNACIONAL DE AGRICULTURA TROPICAL - CIAT,0.0,148.6092,402.47327999999993,465.408,520.84704,616.1579999999999,639.7031999999999,598.18476,648.0942,1028.92896,1307.976,1379.06976,1525.6452,1563.4802399999999
11,CENTRO INTERNACIONAL DE AGRICULTURA TROPICAL - CIAT,0.0,228.47880000000004,420.70752000000005,497.28,556.31808,647.5932,679.5470399999999,595.6668,651.9312,1031.62368,1340.658,1423.33632,1568.7882,1618.0990799999997
12,CENTRO INTERNACIONAL DE AGRICULTURA TROPICAL - CIAT,0.0,260.9508,439.39584,500.712,574.1414400000001,664.4507999999998,680.41368,68.60435999999993,660.9258,1033.68192,1320.6480000000001,1407.43296,1565.8152,1596.40692
13,CENTRO INTERNACIONAL DE AGRICULTURA TROPICAL - CIAT,0.0,208.08960000000002,400.82784,470.79600000000005,530.0985599999999,610.8671999999999,640.8590399999999,552.03096,665.7984,1018.0689600000001,1345.032,1440.18624,1574.1888,1659.0133199999998
14,CENTRO INTERNACIONAL DE AGRICULTURA TROPICAL - CIAT,9.665039999999989,166.81799999999998,321.576,408.96000000000004,458.47296,533.2811999999999,569.2656,631.15572,671.4066,1045.7486399999998,1360.47,1454.1048,1629.315,1680.4753200000002
15,CENTRO INTERNACIONAL DE AGRICULTURA TROPICAL - CIAT,0.0,125.76719999999999,225.66336,273.58799999999997,338.36160000000007,424.3068,443.1719999999999,438.37535999999994,655.7952,942.8496,1315.1100000000001,1432.61808,1595.2782,1662.94284
16,CENTRO INTERNACIONAL DE AGRICULTURA TROPICAL - CIAT,0.5042399999999994,39.933600000000006,108.63936,146.244,187.63872000000003,251.4036,272.7719999999998,311.73024,638.1408000000001,824.2944,937.638,1080.52176,1201.7322,1241.53992
17,CENTRO INTERNACIONAL DE AGRICULTURA TROPICAL - CIAT,0.0,6.1896,28.783679999999997,39.12,50.4768,77.31239999999997,94.35047999999995,585.9571200000001,615.8177999999999,705.76944,796.008,929.82096,1041.8501999999999,1103.5067999999999
18,CENTRO INTERNACIONAL DE AGRICULTURA TROPICAL - CIAT,0.0,0.0,0.048,0.192,0.49152000000000046,1.6427999999999996,2.477519999999998,545.34108,591.144,649.3190400000001,702.5340000000001,838.98432,955.1658,1037.85324
19,CENTRO INTERNACIONAL DE AGRICULTURA TROPICAL - CIAT,0.0,0.0,0.0,0.0,0.0,0.0,0.0,536.62716,570.4872,621.1128000000001,648.192,794.8046400000001,912.6426,966.8793600000001
20,CENTRO INTERNACIONAL DE AGRICULTURA TROPICAL - CIAT,0.0,0.0,0.0,0.0,0.0,0.0,0.0,535.25868,563.3178,603.11376,631.71,694.2225600000002,846.5796,869.4043200000001
21,CENTRO INTERNACIONAL DE AGRICULTURA TROPICAL - CIAT,0.0,0.0,0.0,0.0,0.0,0.0,0.0,491.90340000000003,521.8182000000002,568.1198400000001,592.83,646.1880000000002,793.5342,818.59752
22,CENTRO INTERNACIONAL DE AGRICULTURA TROPICAL - CIAT,0.0,0.0,0.0,0.0,0.0,0.0,0.0,440.12916,453.29999999999995,483.28464,494.688,527.7033600000001,691.0074,744.8984399999998
23,CENTRO INTERNACIONAL DE AGRICULTURA TROPICAL - CIAT,0.0,0.0,0.0,0.0,0.0,0.0,0.0,391.02432,409.01520000000005,436.128,451.404,492.92496000000006,645.7266,690.2694
0,CONJUNTO RESIDENCIAL FRAYLE,0.006,0.006,0.006,0.006999999999999999,0.006999999999999999,0.006999999999999999,0.006999999999999999,3.359,6.8185,7.8149999999999995,8.006,8.3236,9.891,10.858800000000002
1,CONJUNTO RESIDENCIAL FRAYLE,0.006,0.006,0.006999999999999999,0.006999999999999999,0.006999999999999999,0.006999999999999999,0.006999999999999999,3.1630000000000003,5.818999999999999,7.3822,7.638000000000001,7.932600000000001,9.597999999999999,10.156500000000001
2,CONJUNTO RESIDENCIAL FRAYLE,0.006,0.006,0.006999999999999999,0.006999999999999999,0.006999999999999999,0.006999999999999999,0.006999999999999999,2.9739999999999998,5.8705,7.138199999999999,7.446000000000001,7.686999999999999,9.470500000000001,9.847
3,CONJUNTO RESIDENCIAL FRAYLE,0.006,0.006,0.006999999999999999,0.006999999999999999,0.006999999999999999,0.006999999999999999,0.007900000000000006,3.155,5.7509999999999994,7.1822,7.438000000000001,7.715800000000001,9.418,9.915799999999999
4,CONJUNTO RESIDENCIAL FRAYLE,0.006,0.006,0.006999999999999999,0.006999999999999999,0.006999999999999999,0.006999999999999999,0.006999999999999999,3.6757000000000004,5.979,7.719,8.110999999999999,8.5734,10.062999999999999,10.742200000000002
5,CONJUNTO RESIDENCIAL FRAYLE,0.006,0.006,0.006999999999999999,0.006999999999999999,0.006999999999999999,0.006999999999999999,0.007900000000000006,5.244599999999999,7.287,9.625200000000001,10.655,11.7388,13.1305,13.658100000000001
6,CONJUNTO RESIDENCIAL FRAYLE,0.014499999999999999,0.051000000000000004,0.20980000000000001,0.297,0.40900000000000003,0.8300000000000001,1.1586000000000005,6.357799999999999,8.774000000000001,11.863799999999998,12.780000000000001,13.428799999999999,14.664000000000001,15.000900000000001
7,CONJUNTO RESIDENCIAL FRAYLE,0.12640000000000004,0.8525,1.8004,2.269,2.7034,4.024,4.9727000000000015,7.7903,11.1435,13.826999999999998,14.39,14.8372,15.900500000000001,16.718300000000003
8,CONJUNTO RESIDENCIAL FRAYLE,0.5202,2.215,4.2256,5.284,6.634400000000001,9.782499999999999,10.6995,6.7267,11.811,13.7966,14.275,14.601399999999998,15.415,16.170600000000004
9,CONJUNTO RESIDENCIAL FRAYLE,1.2246000000000001,4.3045,7.2818000000000005,8.75,10.9852,15.451500000000001,16.2198,7.513599999999999,12.8765,14.5166,14.960000000000003,15.502600000000001,16.683500000000002,17.413700000000002
10,CONJUNTO RESIDENCIAL FRAYLE,0.008,4.734999999999999,9.6076,11.866,14.555599999999998,19.783499999999997,20.313100000000002,8.972300000000002,12.653500000000001,14.340599999999998,14.891999999999998,15.288400000000001,16.343000000000004,17.1116
11,CONJUNTO RESIDENCIAL FRAYLE,0.006,0.006999999999999999,11.0428,13.187999999999999,16.139000000000003,21.927,22.637,8.6206,12.104,14.1228,14.530000000000001,15.095799999999997,16.1375,16.9377
12,CONJUNTO RESIDENCIAL FRAYLE,0.006,5.055999999999999,11.9488,14.355,17.4938,22.578,23.225499999999997,7.9628,12.1095,13.606,14.098999999999998,14.8398,15.869999999999997,16.9481
13,CONJUNTO RESIDENCIAL FRAYLE,0.006,3.3715,11.1058,13.075999999999999,16.221,22.469,23.5002,7.813599999999998,11.764,13.8282,14.355,14.832199999999997,15.848499999999998,19.4159
14,CONJUNTO RESIDENCIAL FRAYLE,0.006,0.006,8.5986,10.959000000000001,14.228,20.6515,21.547700000000006,7.931799999999999,10.973,13.4314,14.068999999999999,14.611400000000003,15.629999999999999,16.3365
15,CONJUNTO RESIDENCIAL FRAYLE,0.006,0.006,6.045999999999999,7.885,10.1698,17.179000000000002,18.0668,7.5,9.800999999999998,12.8076,13.367999999999999,13.918800000000001,15.128499999999999,15.9219
16,CONJUNTO RESIDENCIAL FRAYLE,0.006,0.12015000000000003,2.9745999999999997,4.372,5.70652,11.424849999999998,12.200949999999999,6.66552,9.144150000000002,11.94056,12.543499999999998,13.02868,14.291249999999998,15.063989999999999
17,CONJUNTO RESIDENCIAL FRAYLE,0.037540000000000004,0.2197,0.94176,1.58,2.2222,3.8984999999999976,4.526189999999999,6.92523,9.643300000000002,11.857759999999999,12.2925,12.75236,14.175749999999997,15.36525
18,CONJUNTO RESIDENCIAL FRAYLE,0.006,0.006999999999999999,0.012879999999999996,0.024,0.04512000000000001,0.13319999999999993,0.15399999999999997,7.6769300000000005,11.88795,13.251439999999999,13.711,14.201640000000001,15.59135,16.095529999999997
19,CONJUNTO RESIDENCIAL FRAYLE,0.006,0.006,0.006,0.006,0.006999999999999999,0.006999999999999999,0.006999999999999999,8.878320000000002,12.30375,14.16408,14.578,15.030000000000001,16.15085,16.63673
20,CONJUNTO RESIDENCIAL FRAYLE,0.006,0.006,0.006,0.006,0.006999999999999999,0.006999999999999999,0.006999999999999999,8.11617,11.89535,13.59004,14.146,14.55896,15.7248,16.208319999999997
21,CONJUNTO RESIDENCIAL FRAYLE,0.006,0.006,0.006,0.006999999999999999,0.006999999999999999,0.006999999999999999,0.006999999999999999,7.29657,10.02255,12.964080000000001,13.547,13.951080000000001,14.991799999999998,15.99772
22,CONJUNTO RESIDENCIAL FRAYLE,0.006,0.006,0.006,0.006999999999999999,0.006999999999999999,0.006999999999999999,0.006999999999999999,6.29401,9.1806,11.046,11.882000000000001,12.438,13.91565,14.63468
23,CONJUNTO RESIDENCIAL FRAYLE,0.006,0.006,0.006,0.006999999999999999,0.006999999999999999,0.006999999999999999,0.006999999999999999,4.351629999999999,7.204550000000001,8.96604,9.327,9.76612,11.1002,11.825479999999997
0,CONSTRUCTORA COLPATRIA S. A.,0.0,0.0,0.0,0.0,0.0,0.0,0.0,4.73466,5.232000000000001,5.98848,6.252000000000001,6.58488,7.248299999999998,8.246879999999996
1,CONSTRUCTORA COLPATRIA S. A.,0.0,0.0,0.0,0.0,0.0,0.0,0.0,4.4953199999999995,4.814400000000001,5.631119999999999,5.904,6.15,6.839699999999999,7.757999999999999
2,CONSTRUCTORA COLPATRIA S. A.,0.0,0.0,0.0,0.0,0.0,0.0,0.0,4.39194,4.7292000000000005,5.44224,5.772,5.982,6.6561,7.645019999999995
3,CONSTRUCTORA COLPATRIA S. A.,0.0,0.0,0.0,0.0,0.0,0.0,0.0,4.3072799999999996,4.6284,5.41512,5.721,5.936640000000001,6.6294,7.4624399999999955
4,CONSTRUCTORA COLPATRIA S. A.,0.0,0.0,0.0,0.0,0.0,0.0,0.0,4.64796,4.9206,6.00024,6.246,6.468,7.1127,7.958999999999997
5,CONSTRUCTORA COLPATRIA S. A.,0.0,0.0,0.0,0.0,0.0,0.0,0.0,4.77798,5.2386,6.9604800000000004,7.866,8.33352,9.1842,9.64476
6,CONSTRUCTORA COLPATRIA S. A.,0.0,0.0,0.042519999999999995,0.081,0.1574000000000001,0.4492999999999996,0.6991399999999997,3.13284,4.335749999999999,6.34924,6.8895,7.593680000000001,9.057849999999998,9.799359999999993
7,CONSTRUCTORA COLPATRIA S. A.,0.0,0.16135,1.0199599999999998,1.5165,1.86484,2.7203,3.6038099999999993,3.2811099999999995,4.5985,7.009319999999999,7.6655,7.99784,8.733699999999999,9.112789999999999
8,CONSTRUCTORA COLPATRIA S. A.,0.0,0.7156500000000001,2.89724,3.903,4.76084,6.3658,7.209929999999998,4.0444700000000005,5.1761,7.240080000000001,7.6235,7.94436,8.558799999999998,9.200209999999995
9,CONSTRUCTORA COLPATRIA S. A.,0.0,1.7692000000000003,5.539479999999999,6.5504999999999995,7.613440000000001,9.565949999999999,10.484619999999989,4.437240000000001,5.5985,7.0426400000000005,7.4795,7.81096,8.71525,9.125150000000001
10,CONSTRUCTORA COLPATRIA S. A.,0.0,2.9775,7.7354400000000005,8.9475,9.92348,12.17385,13.565669999999999,4.49559,5.49995,6.900799999999999,7.327500000000001,7.6348,8.556899999999999,9.29474
11,CONSTRUCTORA COLPATRIA S. A.,0.0,4.4352,8.11144,9.716999999999999,10.92108,13.5381,14.63827,4.75216,5.208800000000002,6.63708,7.059999999999999,7.412320000000001,8.274149999999999,8.7749
12,CONSTRUCTORA COLPATRIA S. A.,0.0,4.936400000000001,8.571840000000002,10.0105,11.10192,13.576149999999998,14.526879999999997,4.467619999999999,5.139050000000001,6.119640000000001,6.6075,7.09948,7.99625,8.75581
13,CONSTRUCTORA COLPATRIA S. A.,0.0,3.89635,8.13496,9.615,10.55992,12.6035,13.520719999999999,3.8827200000000013,5.024649999999999,5.77844,6.072000000000001,6.46636,7.5569500000000005,7.866659999999999
14,CONSTRUCTORA COLPATRIA S. A.,0.0,2.677,6.29928,7.6015,8.985680000000002,11.079799999999999,11.845020000000002,3.46621,4.517250000000001,5.285639999999999,5.5425,5.828880000000001,6.875249999999999,7.716379999999996
15,CONSTRUCTORA COLPATRIA S. A.,0.0,1.8787500000000001,4.195,5.4110000000000005,6.7302,8.3241,9.039679999999999,3.2294800000000006,4.3522,5.10072,5.349500000000001,5.5564800000000005,6.806549999999996,7.47745
16,CONSTRUCTORA COLPATRIA S. A.,0.0,0.7777000000000001,2.11404,2.9455,3.7523999999999997,4.6607,5.139219999999998,2.9617299999999998,4.248799999999999,4.9626399999999995,5.194500000000001,5.4508399999999995,6.3671999999999995,7.141189999999997
17,CONSTRUCTORA COLPATRIA S. A.,0.0,0.037000000000000005,0.46124,0.6535,0.92648,1.3733999999999997,1.6573499999999999,3.1586,4.38925,5.182639999999999,5.388,5.665800000000001,6.6514500000000005,7.656709999999995
18,CONSTRUCTORA COLPATRIA S. A.,0.0,0.0,0.0,0.001,0.004,0.015449999999999988,0.02844999999999993,6.160620000000001,7.683300000000001,8.616,8.871500000000001,9.126,9.97935,10.92511
19,CONSTRUCTORA COLPATRIA S. A.,0.0,0.0,0.0,0.0,0.0,0.0,0.0,7.1658,8.232600000000001,9.32712,9.524999999999999,9.827760000000001,10.521,11.594819999999997
20,CONSTRUCTORA COLPATRIA S. A.,0.0,0.0,0.0,0.0,0.0,0.0,0.0,7.061819999999999,8.3199,9.13224,9.344999999999999,9.594,10.3263,10.9107
21,CONSTRUCTORA COLPATRIA S. A.,0.0,0.0,0.0,0.0,0.0,0.0,0.0,6.85776,7.9722,8.742,8.928,9.110879999999998,9.9741,10.91868
22,CONSTRUCTORA COLPATRIA S. A.,0.0,0.0,0.0,0.0,0.0,0.0,0.0,6.14382,7.327500000000001,8.046479999999999,8.223,8.47176,9.218700000000002,9.94674
23,CONSTRUCTORA COLPATRIA S. A.,0.0,0.0,0.0,0.0,0.0,0.0,0.0,5.54124,5.878500000000001,6.90024,7.194,7.398,8.078700000000001,8.956859999999999
0,DECADA 10 EN TODO S.A.S.,0.0,0.0,0.0,0.0,0.0,0.0,0.0,2.9692849999999997,3.149025,3.2945,3.366,3.4485,3.875024999999999,6.026184999999999
1,DECADA 10 EN TODO S.A.S.,0.0,0.0,0.0,0.0,0.0,0.0,0.0,3.025605,3.176525,3.3,3.3577500000000002,3.42914,3.830475,5.89237
2,DECADA 10 EN TODO S.A.S.,0.0,0.0,0.0,0.0,0.0,0.0,0.0,2.95097,3.1270249999999997,3.267,3.322,3.3989999999999996,3.818925,5.908264999999999
3,DECADA 10 EN TODO S.A.S.,0.0,0.0,0.0,0.0,0.0,0.0,0.0,2.9889200000000002,3.1405,3.2560000000000002,3.3165,3.4045,3.8238749999999997,6.0085299999999995
4,DECADA 10 EN TODO S.A.S.,0.0,0.0,0.0,0.0,0.0,0.0,0.0,3.0005249999999997,3.110525,3.26436,3.3165,3.39064,3.7817999999999996,5.834289999999999
5,DECADA 10 EN TODO S.A.S.,0.0,0.0,0.0,0.0,0.0,0.0,0.024,3.000775,3.1325250000000002,3.2395,3.29175,3.3495,3.741925,5.973109999999998
6,DECADA 10 EN TODO S.A.S.,0.008879999999999999,0.1768,0.68,1.3199999999999998,2.0752000000000006,3.9423999999999992,5.264319999999997,3.0347,3.18795,3.3267800000000003,3.3855,3.4777200000000006,3.8878749999999993,6.2359499999999946
7,DECADA 10 EN TODO S.A.S.,0.64344,3.0076,6.5404800000000005,8.436,10.733760000000002,16.3572,19.16247999999999,3.0080499999999994,3.1743500000000004,3.4099,3.532000000000001,3.6702200000000005,4.668625,6.946669999999998
8,DECADA 10 EN TODO S.A.S.,4.39136,6.8428,15.3648,19.836,23.82752,32.9344,36.55224,3.4095549999999974,3.7364250000000014,6.0758,8.277999999999999,10.638580000000001,20.492149999999985,51.416554999999995
9,DECADA 10 EN TODO S.A.S.,6.87144,13.919599999999999,27.80032,32.552,38.33600000000001,50.487999999999985,53.75407999999998,3.749004999999999,6.298549999999995,58.927080000000004,65.17575,69.74078,83.96647499999997,93.04212999999996
10,DECADA 10 EN TODO S.A.S.,8.239439999999998,20.842399999999998,36.83264,42.38799999999999,47.73152,58.074,62.73487999999999,3.4362600000000034,44.250150000000005,65.91938,69.67325,73.12684,86.82804999999999,92.30109999999998
11,DECADA 10 EN TODO S.A.S.,13.02448,19.980399999999996,39.60992,45.524,49.38784,58.911999999999985,62.996239999999986,3.202415000000008,43.07950000000001,67.14099999999999,70.7885,75.16708,88.38797499999998,95.48553499999994
12,DECADA 10 EN TODO S.A.S.,10.88584,18.9324,38.66112,44.652,50.208,60.723200000000006,65.63807999999999,3.1440850000000022,50.255750000000006,68.14985999999999,72.1265,75.91352,88.81857499999998,95.77125999999998
13,DECADA 10 EN TODO S.A.S.,7.13072,13.6052,31.984959999999997,39.368,46.49344000000001,57.502399999999994,62.54887999999998,3.327154999999999,34.624625,65.84018,71.9785,76.82964,90.30905,96.53209999999999
14,DECADA 10 EN TODO S.A.S.,5.34128,11.815999999999999,26.176320000000004,33.236000000000004,40.656,49.8348,53.68223999999999,2.3019649999999996,3.1887999999999987,66.56906000000001,72.57624999999999,78.11692000000001,91.90032500000001,98.39398499999996
15,DECADA 10 EN TODO S.A.S.,2.41544,5.9908,18.317120000000003,24.212,30.67488000000001,41.3056,42.90072,2.3166099999999967,2.8864749999999986,67.07814,73.28800000000001,78.19906,94.240925,101.29277499999995
16,DECADA 10 EN TODO S.A.S.,0.9643200000000001,3.4512,9.18048,12.116,14.82368,21.634,23.557199999999987,2.3412949999999992,2.8315500000000005,66.40541999999999,72.55125000000001,78.11088000000001,94.11294999999998,97.97735999999998
17,DECADA 10 EN TODO S.A.S.,0.020399999999999995,0.4968,2.048,2.7520000000000002,3.47168,5.0367999999999995,6.223359999999996,4.985555000000001,5.466950000000001,68.2973,73.48349999999999,79.66132000000002,93.33417499999999,100.593705
18,DECADA 10 EN TODO S.A.S.,0.0,0.0,0.0,0.004,0.016,0.08800000000000001,0.15559999999999946,5.822905,6.007325,66.92908,70.8445,75.22244,87.9254,96.87481
19,DECADA 10 EN TODO S.A.S.,0.0,0.0,0.0,0.0,0.0,0.0,0.0,5.82934,5.9460500000000005,22.947319999999998,29.69725,32.95732,51.456900000000005,63.58076999999994
20,DECADA 10 EN TODO S.A.S.,0.0,0.0,0.0,0.0,0.0,0.0,0.0,5.099105,5.277525000000001,5.544,5.797000000000001,6.64664,11.03135,19.195659999999958
21,DECADA 10 EN TODO S.A.S.,0.0,0.0,0.0,0.0,0.0,0.0,0.0,2.997995,3.182025,3.35786,3.45125,3.55014,3.9809,6.282594999999995
22,DECADA 10 EN TODO S.A.S.,0.0,0.0,0.0,0.0,0.0,0.0,0.0,3.1270249999999997,3.2175,3.34136,3.3935,3.4896400000000005,3.978975,6.2514099999999955
23,DECADA 10 EN TODO S.A.S.,0.0,0.0,0.0,0.0,0.0,0.0,0.0,3.0518399999999994,3.176525,3.3110000000000004,3.3687500000000004,3.4621399999999998,3.867599999999999,5.8813699999999995
0,INTERGRAFIC DE OCCIDENTE S.A.,0.0,0.0,0.001,0.003,0.0055,0.011224999999999995,0.011944999999999994,8.748095,11.92015,145.94984,187.25475,213.67838000000003,274.81084999999996,293.590935
1,INTERGRAFIC DE OCCIDENTE S.A.,0.0,0.0,0.001,0.0032500000000000003,0.006,0.0115,0.012444999999999993,8.815909999999999,12.0411,149.09084000000001,181.28975000000003,219.81334,267.59457499999996,300.07087999999993
2,INTERGRAFIC DE OCCIDENTE S.A.,0.0,0.0,0.001,0.003,0.006,0.0115,0.0125,8.819984999999999,12.036375000000001,152.74617999999998,188.23525,216.14232,278.49885,294.25666499999994
3,INTERGRAFIC DE OCCIDENTE S.A.,0.0,0.0,0.001,0.0025,0.0052400000000000085,0.0115,0.012,8.748375,12.08125,142.04113999999998,189.47875000000002,217.50686000000002,275.97487499999994,305.95207999999997
4,INTERGRAFIC DE OCCIDENTE S.A.,0.0,0.0,0.0015,0.0035,0.0065,0.0115,0.012444999999999993,8.719005000000001,12.0801,142.78751999999997,181.2755,209.33017999999998,272.02984999999995,309.1043799999998
5,INTERGRAFIC DE OCCIDENTE S.A.,0.0,0.0,0.002,0.00375,0.006,0.011000000000000001,0.014614999999999951,9.336165000000001,12.761225,111.1396,136.99075,164.31284,224.57807499999996,251.99317
6,INTERGRAFIC DE OCCIDENTE S.A.,0.046029999999999995,0.151275,0.57582,0.829,1.2322199999999999,2.3034499999999998,3.1043799999999973,12.229280000000001,23.002200000000002,139.65614,164.55775,189.60778000000002,238.49149999999995,249.04129
7,INTERGRAFIC DE OCCIDENTE S.A.,0.35056,1.33865,4.7538800000000005,6.0425,8.057580000000002,12.934674999999997,14.774159999999991,12.95688,30.35425,168.59805999999998,196.84175,222.60186,284.69195,313.80858499999994
8,INTERGRAFIC DE OCCIDENTE S.A.,1.2414049999999999,3.8367750000000003,10.912059999999999,15.033,19.45626,27.670374999999993,32.031715,13.54976,28.965700000000002,193.78816,219.304,247.49650000000003,300.98515,332.5869349999998
9,INTERGRAFIC DE OCCIDENTE S.A.,3.15143,6.288475,19.667299999999997,27.454250000000002,32.62224,39.77705,44.04348499999998,13.133230000000001,32.509775000000005,199.50776000000002,227.522,253.98812000000007,303.4814,332.22147999999976
10,INTERGRAFIC DE OCCIDENTE S.A.,5.546080000000001,11.49545,26.21502,34.978,40.46476,49.02345,51.77621499999999,11.797479999999998,32.91505,205.43741999999997,227.872,254.23078000000004,316.77125,354.9686549999998
11,INTERGRAFIC DE OCCIDENTE S.A.,6.8398699999999995,13.911725,30.13492,38.181250000000006,44.083800000000004,51.721225,53.97214499999999,12.865185000000002,29.967150000000004,200.5821,231.5165,251.95781999999997,305.6683,337.05463
12,INTERGRAFIC DE OCCIDENTE S.A.,10.10984,13.609025,31.74204,39.87375,44.458679999999994,52.07885,54.802564999999994,9.58622,20.326175,191.59148,217.47175,241.16622,305.87415,329.384735
13,INTERGRAFIC DE OCCIDENTE S.A.,8.087515,12.356649999999998,27.0514,34.71925,39.82804,47.03235000000001,50.80081,8.644665,18.299925,157.56707999999998,179.81,205.6628,266.65489999999994,283.5207199999999
14,INTERGRAFIC DE OCCIDENTE S.A.,6.19706,8.37405,20.014780000000002,26.338,30.526860000000003,37.179625,39.289829999999995,9.708285,16.5417,156.19852,191.97674999999998,219.43295999999998,278.72279999999995,294.610405
15,INTERGRAFIC DE OCCIDENTE S.A.,3.642155,5.574400000000001,12.916080000000001,17.207,20.082080000000005,27.058149999999998,28.863799999999994,9.012945,14.253075000000003,174.32263999999998,212.612,236.10634,289.07949999999994,312.00867999999997
16,INTERGRAFIC DE OCCIDENTE S.A.,1.7603849999999999,2.7638750000000005,6.9581,8.85275,11.425140000000003,15.245925,19.14904499999998,9.272499999999999,14.379725,178.27441999999996,214.89775,242.53770000000003,282.941075,311.19184999999993
17,INTERGRAFIC DE OCCIDENTE S.A.,0.23250000000000004,0.472675,1.52202,2.2197500000000003,2.90024,4.333949999999999,5.821144999999998,9.43345,13.572025,174.17386,208.65675,229.70810000000003,279.21025,300.76473999999996
18,INTERGRAFIC DE OCCIDENTE S.A.,0.0,0.0,0.004,0.01525,0.0315,0.11357499999999995,0.1624149999999997,9.872229999999998,15.602599999999999,160.92987999999997,194.07875,218.52664000000004,275.74767499999996,291.885915
19,INTERGRAFIC DE OCCIDENTE S.A.,0.0,0.0,0.002,0.0035,0.004740000000000009,0.0095,0.011444999999999993,10.770405,17.21845,157.19092,193.29199999999997,218.00968,264.31654999999995,288.6471299999999
20,INTERGRAFIC DE OCCIDENTE S.A.,0.0,0.0,0.001259999999999998,0.003,0.005,0.01,0.0115,10.7797,17.143375,158.84042,187.40349999999998,216.68508,270.21352499999995,291.41663499999987
21,INTERGRAFIC DE OCCIDENTE S.A.,0.0,0.0,0.0035,0.0055,0.006999999999999999,0.0105,0.011444999999999993,10.76298,21.61025,109.89408,144.36424999999997,173.19294000000002,214.956975,243.96160499999996
22,INTERGRAFIC DE OCCIDENTE S.A.,0.0,0.0,0.0025,0.004,0.006,0.011224999999999995,0.012,10.6708,12.91555,121.37244000000001,154.23725000000002,176.79828,229.18614999999997,250.10914499999996
23,INTERGRAFIC DE OCCIDENTE S.A.,0.0,0.0,0.0015,0.003,0.006,0.0115,0.0125,8.73666,11.99545,142.26596,176.1725,206.01346,273.3197,297.84615499999995
0,MALLPLAZA SERVICIOS S.A.S.,0.0,0.0,0.0,0.0,0.005,0.014,0.014,266.84374,288.7093,318.12712,331.1295,345.98852,686.4214999999997,817.32071
1,MALLPLAZA SERVICIOS S.A.S.,0.0,0.0,0.0,0.004,0.005,0.01,0.014,256.8792,269.44505,292.2194,303.26149999999996,315.448,684.0455,793.7869999999992
2,MALLPLAZA SERVICIOS S.A.S.,0.0,0.0,0.0,0.0,0.005,0.009000000000000001,0.010000000000000002,250.45659,261.88570000000004,279.83360000000005,289.25,300.94615999999996,576.5644999999989,704.7419499999999
3,MALLPLAZA SERVICIOS S.A.S.,0.0,0.0,0.0,0.0,0.005,0.006799999999999955,0.010000000000000002,244.75244,252.64790000000002,270.935,279.00250000000005,287.91264,315.139,338.39580999999987
4,MALLPLAZA SERVICIOS S.A.S.,0.0,0.0,0.0,0.0,0.005,0.01,0.014,245.8988,251.9543,266.62424,273.89,281.14888,299.94655,323.5645499999999
5,MALLPLAZA SERVICIOS S.A.S.,0.0,0.0,0.0,0.005,0.11896000000000004,0.8107999999999997,1.5410999999999972,249.0913,260.6519,291.38128,302.86400000000003,311.96604,339.58555,356.12418999999994
6,MALLPLAZA SERVICIOS S.A.S.,1.15723,2.20965,5.359119999999997,12.5515,22.64852,37.130399999999995,45.215339999999976,273.11465999999996,289.66769999999997,330.97276,345.51599999999996,358.4422,548.1268999999999,856.0210899999985
7,MALLPLAZA SERVICIOS S.A.S.,10.85069,31.3861,57.31743999999999,74.69,97.19684000000001,170.83535,206.65193,319.65967,405.02085,604.91548,759.5015000000001,898.2303200000001,1195.1064499999998,1241.13933
8,MALLPLAZA SERVICIOS S.A.S.,11.643309999999998,86.90485,153.81516,186.635,213.18796,334.4862,358.09685999999977,226.73430999999997,808.4488,1183.31452,1241.29,1276.52504,1370.27345,1402.4938
9,MALLPLAZA SERVICIOS S.A.S.,25.762059999999998,134.7708,278.10659999999996,300.5955,331.23556,446.0247499999999,456.34011,726.91482,1234.52355,1396.31812,1449.025,1496.31148,1571.8246500000002,1605.89353
10,MALLPLAZA SERVICIOS S.A.S.,69.64718,167.6585,333.4578,376.5935,406.71164000000005,516.19755,527.5965399999999,898.9032500000001,1463.0835000000002,1656.80208,1693.182,1717.75412,1788.7619499999998,1830.05676
11,MALLPLAZA SERVICIOS S.A.S.,118.44924,202.26355,378.22952,420.39150000000006,453.2042,551.3661999999999,573.51854,762.9660499999999,1562.6693500000001,1725.34924,1757.4660000000001,1784.3138399999998,1855.0545,1880.8543800000002
12,MALLPLAZA SERVICIOS S.A.S.,101.14648999999999,234.94615,376.04972,423.495,458.88436,556.0657,568.56989,1004.33935,1668.86355,1772.37932,1800.7714999999998,1825.9586800000002,1895.4227,1924.3266799999997
13,MALLPLAZA SERVICIOS S.A.S.,54.38252,180.30505,351.56784,393.8975,427.71744,528.0461500000001,539.1177,1004.55621,1684.42105,1778.7283200000002,1804.8445,1834.11552,1893.9047999999998,1928.85412
14,MALLPLAZA SERVICIOS S.A.S.,25.60492,141.11815,290.22447999999997,329.1335,354.86184000000003,462.00444999999996,492.42149999999975,993.43775,1661.75275,1769.41316,1799.4105,1825.80908,1887.26865,1924.22308
15,MALLPLAZA SERVICIOS S.A.S.,46.43948999999999,106.85135000000001,200.11507999999998,224.5155,254.69908000000004,351.36934999999994,368.71842,1012.05255,1670.55395,1768.20344,1794.5095000000001,1820.61308,1888.8771,1921.00918
16,MALLPLAZA SERVICIOS S.A.S.,29.878749999999997,64.4621,106.93576,114.852,132.77931999999998,203.59875,218.49438999999995,1016.28017,1664.52655,1763.28316,1792.3995,1822.0214,1884.0952,1901.75758
17,MALLPLAZA SERVICIOS S.A.S.,13.156119999999998,17.28535,27.772080000000003,32.862,41.87124,73.55129999999998,92.23469999999996,1073.65689,1647.2117500000002,1750.09068,1786.7069999999999,1828.0657999999999,1895.244,1918.8383099999999
18,MALLPLAZA SERVICIOS S.A.S.,0.0,0.0,0.3196,0.561,1.1568400000000028,5.536949999999999,16.38617999999995,1077.7785299999998,1627.9861,1737.83588,1776.6770000000001,1807.06844,1884.51935,1931.9857699999993
19,MALLPLAZA SERVICIOS S.A.S.,0.0,0.0,0.0,0.004,0.009000000000000001,0.014,0.014,1246.3980599999998,1591.7812000000001,1708.42252,1751.6255,1780.9864000000002,1857.81225,1881.00856
20,MALLPLAZA SERVICIOS S.A.S.,0.0,0.0,0.0,0.0,0.005,0.009000000000000001,0.009889999999999987,1177.7972100000004,1364.0785,1487.1255999999998,1543.4150000000002,1591.8966,1744.4299500000002,1790.0471
21,MALLPLAZA SERVICIOS S.A.S.,0.0,0.0,0.0,0.004,0.009000000000000001,0.014,0.014,746.9748,1031.84825,1141.516,1184.549,1252.2884800000002,1442.261,1537.6400599999995
22,MALLPLAZA SERVICIOS S.A.S.,0.0,0.0,0.0,0.004,0.005,0.011799999999999956,0.014,405.94730000000004,479.8982,762.00164,813.4440000000001,853.8725999999999,1072.50125,1143.77762
23,MALLPLAZA SERVICIOS S.A.S.,0.0,0.0,0.0,0.0,0.004,0.005,0.009889999999999987,316.04507,334.5203,378.34256,424.149,549.9038800000001,771.4722499999999,861.69439
0,PRODUCTORA NACIONAL AVICOLA - PRONAVICOLA S.A.,0.013485,0.0136,0.0144,0.0144,0.0144,0.0152,0.0152,6.89964,7.6038,12.631200000000002,16.1569,19.990399999999998,26.70295,27.508899999999997
1,PRODUCTORA NACIONAL AVICOLA - PRONAVICOLA S.A.,0.012725,0.0136,0.0144,0.0144,0.0144,0.0152,0.0152,6.47686,7.0544,11.5652,15.3323,19.187400000000004,24.33755,26.19363999999999
2,PRODUCTORA NACIONAL AVICOLA - PRONAVICOLA S.A.,0.013560000000000001,0.0136,0.0144,0.0144,0.0152,0.0152,0.0159,6.8049100000000005,6.98565,10.13514,15.22225,18.945880000000002,24.06335,25.33014
3,PRODUCTORA NACIONAL AVICOLA - PRONAVICOLA S.A.,0.0128,0.0136,0.0144,0.015050000000000001,0.0152,0.0159,0.0159,6.44386,6.779,9.244200000000001,15.058050000000001,19.122200000000003,23.2244,24.957659999999997
4,PRODUCTORA NACIONAL AVICOLA - PRONAVICOLA S.A.,0.0128,0.0136,0.0144,0.0144,0.0152,0.015375,0.0159,6.877600000000001,8.4027,16.404600000000002,24.682299999999998,31.980239999999995,44.00045,48.39594999999998
5,PRODUCTORA NACIONAL AVICOLA - PRONAVICOLA S.A.,0.0053,0.005825,0.007880000000000002,0.0106,0.0114,0.0136,0.015869999999999877,37.58412499999999,42.633575,50.57712,52.698299999999996,58.04572,64.37529999999998,67.04359999999998
6,PRODUCTORA NACIONAL AVICOLA - PRONAVICOLA S.A.,0.0,0.0,0.6182400000000003,1.3249499999999999,1.8630400000000003,4.4327749999999995,6.372214999999996,47.93564000000001,52.398300000000006,62.41808,65.88915,71.66991999999999,79.1037,83.05156500000001
7,PRODUCTORA NACIONAL AVICOLA - PRONAVICOLA S.A.,0.0,1.21215,7.618399999999999,10.4052,12.583660000000004,21.179375,22.729224999999996,37.123650000000005,48.54275,63.57418,68.9916,74.48208,84.20994999999999,87.233555
8,PRODUCTORA NACIONAL AVICOLA - PRONAVICOLA S.A.,0.0,4.42375,19.57,25.04105,32.19088000000001,40.1407,42.870819999999995,1.72669,36.786274999999996,53.9219,58.392799999999994,66.11852,76.437275,81.10714
9,PRODUCTORA NACIONAL AVICOLA - PRONAVICOLA S.A.,0.0,5.7301,33.65908,41.58985,51.29348,59.07702499999999,63.15643,10.62804,34.69225,49.906279999999995,57.121700000000004,62.3929,75.648275,81.77445999999999
10,PRODUCTORA NACIONAL AVICOLA - PRONAVICOLA S.A.,2.233114,14.322390000000002,45.470964,53.1046,61.9913,69.84801999999999,72.278618,33.637614,37.459199999999996,51.396016,58.4441,67.5954,76.87057,78.32291800000003
11,PRODUCTORA NACIONAL AVICOLA - PRONAVICOLA S.A.,0.378906,15.107399999999998,43.248419999999996,58.3584,65.41313600000001,74.8669,79.209578,11.373224,35.8864,48.6491,56.663399999999996,68.994696,78.92795999999998,84.08477800000001
12,PRODUCTORA NACIONAL AVICOLA - PRONAVICOLA S.A.,0.0,17.248325,41.49622,54.19925,62.609672,74.41085,77.228095,1.260522,32.57289,41.04540800000001,53.20815,68.568484,80.70116999999999,87.31657999999999
13,PRODUCTORA NACIONAL AVICOLA - PRONAVICOLA S.A.,1.104,18.025,38.153728,48.1171,56.495856,68.85226,72.171768,1.39388,35.78522000000001,44.953852,56.6836,69.52649600000001,82.05771999999999,88.509568
14,PRODUCTORA NACIONAL AVICOLA - PRONAVICOLA S.A.,1.259296,10.381920000000001,31.532232,39.6392,48.226327999999995,60.92436000000001,63.077623999999986,9.568636,34.00936,48.199956,55.22839999999999,73.09353999999999,84.68472,88.394004
15,PRODUCTORA NACIONAL AVICOLA - PRONAVICOLA S.A.,0.0,9.44555,20.250239999999998,25.5511,32.56064,47.4654,53.00844999999999,2.0567,36.406549999999996,49.92304,60.2966,72.45016,89.71835,97.14247999999999
16,PRODUCTORA NACIONAL AVICOLA - PRONAVICOLA S.A.,0.0,4.8293,12.36194,15.2318,20.537940000000003,29.45485,32.2671,1.50212,33.2405,44.186299999999996,54.5779,65.87526000000001,87.543,89.53476999999998
17,PRODUCTORA NACIONAL AVICOLA - PRONAVICOLA S.A.,0.21141000000000001,1.0422500000000001,3.0534600000000003,4.1424,5.2631000000000006,9.2645,10.753659999999995,31.229460000000003,41.181400000000004,54.55216,60.4273,69.69598,90.86744999999999,97.4281
18,PRODUCTORA NACIONAL AVICOLA - PRONAVICOLA S.A.,0.00357,0.0049,0.008960000000000001,0.0286,0.09694,0.22920000000000001,0.35992999999999986,30.971910000000005,45.121,55.87998,62.0542,67.80374,82.6319,88.54926999999999
19,PRODUCTORA NACIONAL AVICOLA - PRONAVICOLA S.A.,0.01148,0.01245,0.0136,0.0136,0.0144,0.0152,0.0152,13.477640000000001,17.0923,29.32892,37.0294,45.83976,58.86325,67.44910999999996
20,PRODUCTORA NACIONAL AVICOLA - PRONAVICOLA S.A.,0.00954,0.0128,0.0137,0.0143,0.0144,0.0152,0.0152,7.88274,12.2244,15.446200000000001,20.969399999999997,26.37118,34.5544,37.52295999999998
21,PRODUCTORA NACIONAL AVICOLA - PRONAVICOLA S.A.,0.012660000000000001,0.01285,0.0136,0.0136,0.0137,0.0144,0.0151,8.86931,11.01365,14.48882,18.2186,25.31362,32.16109999999999,33.39861
22,PRODUCTORA NACIONAL AVICOLA - PRONAVICOLA S.A.,0.0128,0.0132,0.0136,0.0144,0.0144,0.0151,0.0152,8.35303,10.079,13.9844,16.8994,23.31224,28.80575,31.4846
23,PRODUCTORA NACIONAL AVICOLA - PRONAVICOLA S.A.,0.0136,0.0136,0.0144,0.0144,0.01512,0.0152,0.0159,7.121030000000001,8.0998,13.2482,16.0752,20.66202,27.597299999999997,30.225899999999996
0,RACAFE & CIA. S.C.A -  HUILA,0.0,0.0,0.0,0.0,0.0,0.0,0.0,6.206999999999999,6.7503,7.37376,7.703749999999999,9.0516,209.576775,219.26760000000002
1,RACAFE & CIA. S.C.A -  HUILA,0.0,0.0,0.0,0.0,0.0,0.0,0.0,6.140345,6.746725,7.314,7.704000000000001,8.75374,208.95,219.60824499999998
2,RACAFE & CIA. S.C.A -  HUILA,0.0,0.0,0.0,0.0,0.0,0.0,0.0,6.24071,6.654,7.254,7.67375,8.693499999999998,207.69277499999998,216.400355
3,RACAFE & CIA. S.C.A -  HUILA,0.0,0.0,0.0,0.0,0.0,0.0,0.0,6.353610000000001,6.68745,7.25426,7.615,8.213980000000001,213.64600000000002,219.395145
4,RACAFE & CIA. S.C.A -  HUILA,0.0,0.0,0.0,0.0,0.0,0.0,0.0,6.293555,6.593999999999999,7.1339999999999995,7.4342500000000005,8.06282,207.645,215.10195499999998
5,RACAFE & CIA. S.C.A -  HUILA,0.0,0.0,0.0,0.0,0.0,0.016724999999999997,0.033944999999999996,6.1244,6.2825,6.820779999999999,7.0680000000000005,7.54796,187.25017499999967,213.02062
6,RACAFE & CIA. S.C.A -  HUILA,0.0078099999999999906,0.33737500000000004,1.33452,1.996,2.6847600000000007,4.814324999999999,6.2620049999999985,5.093250000000001,5.434150000000001,6.37788,7.475499999999999,9.856100000000001,97.81649999999995,153.40068499999995
7,RACAFE & CIA. S.C.A -  HUILA,0.0,3.9503000000000004,9.157340000000001,11.606749999999998,13.814620000000001,19.354324999999992,23.299124999999986,4.80814,5.38915,37.85288,54.873,79.58932000000001,176.23354999999998,218.08200999999997
8,RACAFE & CIA. S.C.A -  HUILA,0.0,7.601725000000001,21.726799999999997,26.589,32.52364,41.23282499999999,43.23425999999999,4.7642549999999995,5.317700000000001,52.603579999999994,71.946,107.49604000000002,225.23444999999998,236.07874999999993
9,RACAFE & CIA. S.C.A -  HUILA,0.0,16.929975,33.06814,41.34075,50.345600000000005,56.7246,60.78336999999999,4.740329999999999,5.417300000000004,53.4288,77.66575,128.9512,230.62685,243.46257999999997
10,RACAFE & CIA. S.C.A -  HUILA,0.0,23.15685,45.5995,53.037000000000006,60.15828000000001,65.53399999999999,65.53399999999999,-2.4251200000000126,4.207125000000001,54.96409999999999,81.8235,159.5327200000001,238.704225,246.913635
11,RACAFE & CIA. S.C.A -  HUILA,0.0,24.684675,48.99412,59.0835,63.398480000000006,65.53399999999999,65.53399999999999,-4.370530000000003,2.0008,56.591599999999985,82.61949999999999,177.03320000000002,236.91799999999992,249.58060999999998
12,RACAFE & CIA. S.C.A -  HUILA,0.0,22.458525,51.88128,60.455,64.41002,65.53399999999999,65.53399999999999,-6.10000000000001,-0.15997499999999942,36.49328,66.14824999999999,176.11818000000002,222.85334999999998,230.45637499999998
13,RACAFE & CIA. S.C.A -  HUILA,0.0,13.8533,49.83582,58.935500000000005,63.851440000000004,65.53399999999999,65.53399999999999,-2.6393600000000075,2.6448750000000016,41.97153999999999,66.763,182.11926,227.27864999999997,243.54443999999995
14,RACAFE & CIA. S.C.A -  HUILA,0.0,14.524375000000001,41.76172,50.27275,57.46766000000001,63.949775,65.53399999999999,1.5523450000000014,4.972575000000003,54.62496,81.38799999999999,163.2217800000001,244.43375000000003,258.195165
15,RACAFE & CIA. S.C.A -  HUILA,0.0,9.442825,25.990019999999998,34.935249999999996,40.94088,50.315225,55.89437499999998,5.157575000000005,5.570174999999998,43.364959999999996,75.20025,165.39998000000008,233.7421,251.300865
16,RACAFE & CIA. S.C.A -  HUILA,0.0,4.209975,13.845580000000002,18.0745,21.366800000000005,25.607575,29.822664999999997,5.113330000000001,5.578325000000002,35.27966,63.13249999999999,130.03854000000007,229.654975,241.35535499999992
17,RACAFE & CIA. S.C.A -  HUILA,0.0,1.0622000000000003,3.16634,4.06325,4.86402,7.5486,8.30557,5.074869999999999,5.5271,15.74528,51.9965,84.12282000000002,235.158325,247.410595
18,RACAFE & CIA. S.C.A -  HUILA,0.0,0.0,0.0027599999999999977,0.0135,0.0385,0.13495000000000001,0.2172649999999995,5.986115000000001,6.404999999999999,8.160319999999999,31.69575,77.88230000000001,229.837725,246.23472499999994
19,RACAFE & CIA. S.C.A -  HUILA,0.0,0.0,0.0,0.0,0.0,0.0,0.0,6.301155,6.834275,7.795,16.19425,60.59208000000005,224.36467499999998,245.02195499999988
20,RACAFE & CIA. S.C.A -  HUILA,0.0,0.0,0.0,0.0,0.0,0.0,0.0,6.36021,6.7745500000000005,7.675,9.47425,18.02328,221.154,235.03403499999993
21,RACAFE & CIA. S.C.A -  HUILA,0.0,0.0,0.0,0.0,0.0,0.0,0.0,6.4735000000000005,6.7773,7.5535,7.974,15.533499999999997,217.06777499999998,230.2747
22,RACAFE & CIA. S.C.A -  HUILA,0.0,0.0,0.0,0.0,0.0,0.0,0.0,6.420599999999999,6.809699999999999,7.434,7.79725,15.0516,214.23649999999998,221.25425499999997
23,RACAFE & CIA. S.C.A -  HUILA,0.0,0.0,0.0,0.0,0.0,0.0,0.0,6.3606549999999995,6.775,7.43426,7.7669999999999995,10.31424,212.932,223.91509999999997
0,RICARDO ANDRES SIERRA FERNANDEZ,0.0,0.0,0.0,0.0,0.0,0.0,0.0,0.7492,0.845,0.9359999999999999,0.998,1.0286,1.253,1.8489999999999993
1,RICARDO ANDRES SIERRA FERNANDEZ,0.0,0.0,0.0,0.0,0.0,0.0,0.0,0.7702,0.848,0.9507999999999999,0.993,1.0206,1.209,1.8349999999999995
2,RICARDO ANDRES SIERRA FERNANDEZ,0.0,0.0,0.0,0.0,0.0,0.0,0.0,0.718,0.818,0.9294,0.988,1.0202,1.349,1.8374000000000001
3,RICARDO ANDRES SIERRA FERNANDEZ,0.0,0.0,0.0,0.0,0.0,0.0,0.0,0.7816000000000001,0.8290000000000001,0.9336,1.003,1.0258000000000003,1.1909999999999998,2.269199999999999
4,RICARDO ANDRES SIERRA FERNANDEZ,0.0,0.0,0.0,0.0,0.0,0.0,0.0,0.6721999999999999,0.763,0.9328000000000001,0.991,1.028,2.187,3.5364
5,RICARDO ANDRES SIERRA FERNANDEZ,0.0,0.0,0.0,0.0,0.0,0.0,0.0,0.5724,0.625,1.0592000000000001,1.768,2.9990000000000006,3.93,4.605599999999999
6,RICARDO ANDRES SIERRA FERNANDEZ,0.0,0.0003,0.0044399999999999995,0.0097,0.016700000000000007,0.0603,0.0742,0.43011999999999995,0.44559999999999994,1.1425999999999998,2.2584,2.8158000000000003,4.33,4.9687399999999995
7,RICARDO ANDRES SIERRA FERNANDEZ,0.01654,0.0278,0.07754,0.1079,0.1235,0.2592,0.42747999999999997,0.40502,0.46130000000000004,0.81982,1.1629,2.05904,3.5667000000000004,5.0272
8,RICARDO ANDRES SIERRA FERNANDEZ,0.07098,0.0898,0.1698,0.2424,0.33404,0.6753,0.7671999999999999,0.43576,0.5086,0.7230200000000001,0.9058999999999999,1.35202,2.8465000000000003,3.3533
9,RICARDO ANDRES SIERRA FERNANDEZ,0.09038,0.1469,0.30441999999999997,0.4172,0.5571000000000002,0.875,1.0133999999999996,0.4646199999999999,0.5447,0.8023800000000001,0.9557,1.27214,3.0378,3.526959999999999
10,RICARDO ANDRES SIERRA FERNANDEZ,0.1179,0.1992,0.48707999999999996,0.6098,0.7229000000000002,1.0096,1.13266,0.53338,0.5778000000000001,0.8988399999999999,1.1827,1.5875000000000004,3.1231999999999998,4.051959999999999
11,RICARDO ANDRES SIERRA FERNANDEZ,0.135465,0.26742,0.554548,0.66535,0.752664,1.05796,1.1865160000000001,0.555373,0.6282250000000001,0.9490879999999999,1.28095,1.8168160000000002,4.314814999999999,4.839977
12,RICARDO ANDRES SIERRA FERNANDEZ,0.11143700000000001,0.266965,0.5952599999999999,0.6684,0.7409279999999999,1.03253,1.132932,0.5714349999999999,0.704585,1.014644,1.3035999999999999,1.814976,3.8012300000000003,4.533683
13,RICARDO ANDRES SIERRA FERNANDEZ,0.03899999999999999,0.14124499999999998,0.535312,0.6467,0.739476,0.9799699999999999,1.072111,0.560621,0.6549299999999999,0.912636,1.19165,1.547512,3.4460349999999993,4.386539
14,RICARDO ANDRES SIERRA FERNANDEZ,0.058741,0.132025,0.30879599999999996,0.4194,0.5099159999999999,0.650955,0.7407060000000001,0.5136350000000001,0.5507949999999999,0.814624,0.93915,1.3536040000000003,3.7798599999999993,4.9168769999999995
15,RICARDO ANDRES SIERRA FERNANDEZ,0.041062,0.072965,0.177724,0.2247,0.274268,0.42748,0.491545,0.44400199999999995,0.501345,0.7678999999999999,1.0055,1.6426880000000001,3.5796799999999998,4.404409
16,RICARDO ANDRES SIERRA FERNANDEZ,0.0008839999999999998,0.007769999999999999,0.07803199999999999,0.10685,0.142336,0.21885,0.246444,0.456566,0.477385,0.7460800000000001,0.9160499999999999,1.1884080000000001,3.1012099999999996,4.443281
17,RICARDO ANDRES SIERRA FERNANDEZ,0.0,0.00019500000000000002,0.020324,0.02975,0.043292,0.078025,0.10810800000000001,0.426283,0.481895,0.877176,1.09135,1.456212,4.05989,4.919778000000002
18,RICARDO ANDRES SIERRA FERNANDEZ,0.0,0.0,0.0,0.0,0.0,0.0007399999999999977,0.0019430000000000007,0.7069099999999999,0.8411550000000001,1.62804,2.1945,3.3911480000000003,5.857120000000001,6.214769
19,RICARDO ANDRES SIERRA FERNANDEZ,0.0,0.0,0.0,0.0,0.0,0.0,0.0,0.87883,0.95855,1.9497600000000002,3.053,3.88376,5.8471,6.218640000000001
20,RICARDO ANDRES SIERRA FERNANDEZ,0.0,0.0,0.0,0.0,0.0,0.0,0.0,0.9066399999999999,0.9746499999999999,1.43668,1.9100000000000001,3.0856,5.566649999999998,5.986510000000001
21,RICARDO ANDRES SIERRA FERNANDEZ,0.0,0.0,0.0,0.0,0.0,0.0,0.0,0.8620199999999999,0.94875,1.1567199999999997,1.2645,1.4376,3.6336999999999993,5.31148
22,RICARDO ANDRES SIERRA FERNANDEZ,0.0,0.0,0.0,0.0,0.0,0.0,0.0,0.8084499999999999,0.88795,1.0253199999999998,1.081,1.1668399999999999,1.8584499999999995,3.7300800000000005
23,RICARDO ANDRES SIERRA FERNANDEZ,0.0,0.0,0.0,0.0,0.0,0.0,0.0,0.8002799999999999,0.87655,0.97664,1.037,1.08676,1.6624999999999996,3.3628200000000015
0,UNIVERSIDAD AUTONOMA DE OCCIDENTE,0.006,0.006999999999999999,0.006999999999999999,0.006999999999999999,0.006999999999999999,0.008,0.008,124.09611000000001,133.31195000000002,157.75152,162.931,169.45276,191.79515,215.26551999999998
1,UNIVERSIDAD AUTONOMA DE OCCIDENTE,0.006,0.006999999999999999,0.006999999999999999,0.006999999999999999,0.006999999999999999,0.008,0.008,121.034,130.90220000000002,156.48156000000003,164.195,169.7966,191.24945000000002,214.98311999999999
2,UNIVERSIDAD AUTONOMA DE OCCIDENTE,0.006,0.006999999999999999,0.006999999999999999,0.006999999999999999,0.006999999999999999,0.008,0.008,83.3744,128.0154,153.45616,161.4895,166.44876,188.5726,210.20107999999988
3,UNIVERSIDAD AUTONOMA DE OCCIDENTE,0.006,0.006999999999999999,0.006999999999999999,0.006999999999999999,0.006999999999999999,0.008,0.008,124.40015999999999,133.59935,155.99936,163.30700000000002,169.07468,190.56740000000002,211.12426999999988
4,UNIVERSIDAD AUTONOMA DE OCCIDENTE,0.006,0.006999999999999999,0.006999999999999999,0.006999999999999999,0.006999999999999999,0.008,0.008,125.64311000000001,137.2462,160.79388,169.30450000000002,178.99120000000002,208.4996,229.87823999999995
5,UNIVERSIDAD AUTONOMA DE OCCIDENTE,0.006,0.006999999999999999,0.006999999999999999,0.006999999999999999,0.006999999999999999,0.008,0.020779999999999976,128.92472,141.90200000000002,197.25472,271.501,324.32972000000007,423.8382,436.75488
6,UNIVERSIDAD AUTONOMA DE OCCIDENTE,0.014879999999999997,0.41180000000000005,3.0625999999999998,4.7035,6.473880000000001,13.683599999999998,16.65663,118.14101,133.56074999999998,339.6866,443.701,493.79244000000006,522.7532,539.55571
7,UNIVERSIDAD AUTONOMA DE OCCIDENTE,0.13939999999999997,7.370750000000001,26.20928,35.3845,44.60548,61.86489999999999,74.44583999999996,118.88843000000001,132.93824999999998,420.87679999999995,511.8435,614.7174,684.17785,696.62681
8,UNIVERSIDAD AUTONOMA DE OCCIDENTE,5.7627,25.428500000000003,72.21188000000001,89.068,103.50844,138.18859999999998,148.28604,120.25021000000002,132.7618,497.6297599999999,638.531,735.0966799999999,807.8553499999999,829.0012899999999
9,UNIVERSIDAD AUTONOMA DE OCCIDENTE,26.070059999999998,62.339,122.6948,159.377,179.70684,205.2135,213.84610999999998,123.36182999999998,138.69425,543.17536,689.2685,765.4580800000001,838.9513,869.5555099999999
10,UNIVERSIDAD AUTONOMA DE OCCIDENTE,44.51553,84.94179999999999,172.41352,202.49400000000003,227.96736,252.99609999999998,266.0682999999999,126.24841000000004,134.76525,558.3858799999999,702.0255000000001,783.7930000000001,873.27725,895.9176899999999
11,UNIVERSIDAD AUTONOMA DE OCCIDENTE,56.60385999999999,105.60524999999998,202.24696,223.1035,247.62004000000002,274.64644999999996,285.12223,126.74238000000003,136.99105,540.36196,711.0725,779.94496,847.4150999999999,865.7002100000001
12,UNIVERSIDAD AUTONOMA DE OCCIDENTE,58.227819999999994,128.53215,203.98212000000004,234.1725,252.78816000000003,278.51064999999994,286.38165,130.15651000000003,143.90955,504.93139999999994,670.8665,722.75172,781.5863,805.09835
13,UNIVERSIDAD AUTONOMA DE OCCIDENTE,71.08157,111.64605,190.80615999999998,215.8265,236.9382,263.44605,274.2728599999999,135.04235,144.801,491.58755999999994,674.452,757.41436,813.387,844.0303799999998
14,UNIVERSIDAD AUTONOMA DE OCCIDENTE,44.72023,74.49220000000001,140.31228000000002,171.7395,199.55752,227.48950000000002,239.95098999999996,130.18415,149.17545,469.61967999999996,712.169,827.8290800000002,918.5370999999999,946.8364999999999
15,UNIVERSIDAD AUTONOMA DE OCCIDENTE,8.34973,36.0275,94.09772000000001,118.00450000000001,138.98356,172.29325,183.38486,129.89334,144.81484999999998,442.95543999999995,710.047,817.4801600000001,916.0650499999999,935.1847899999999
16,UNIVERSIDAD AUTONOMA DE OCCIDENTE,3.6132999999999997,10.236350000000002,44.7932,58.019499999999994,74.94272000000001,105.81439999999999,116.97375999999998,126.01642,143.82684999999998,399.31892,691.3815,786.29196,881.8519,904.0257299999998
17,UNIVERSIDAD AUTONOMA DE OCCIDENTE,0.022839999999999985,1.9663499999999998,11.28116,15.195500000000001,19.79072,29.369549999999997,36.20286999999999,21.715009999999992,136.18315,300.6232,637.3385,737.80656,808.7074,832.3554499999999
18,UNIVERSIDAD AUTONOMA DE OCCIDENTE,0.006,0.006999999999999999,0.09700000000000002,0.234,0.4468400000000002,1.2221999999999988,1.7131699999999992,118.53978000000001,138.15805,231.07504,603.907,748.8270000000001,805.4947,818.11947
19,UNIVERSIDAD AUTONOMA DE OCCIDENTE,0.006,0.006,0.006999999999999999,0.006999999999999999,0.006999999999999999,0.008,0.008,70.13305,132.92355,184.19099999999997,558.6030000000001,713.3145199999999,767.20315,788.16816
20,UNIVERSIDAD AUTONOMA DE OCCIDENTE,0.006,0.006,0.006999999999999999,0.006999999999999999,0.006999999999999999,0.008,0.008,16.611599999999996,124.85865000000001,176.13324,469.453,599.7754800000001,677.4972,691.7588799999999
21,UNIVERSIDAD AUTONOMA DE OCCIDENTE,0.006,0.006,0.006999999999999999,0.006999999999999999,0.006999999999999999,0.008,0.008,101.91340000000001,123.8358,163.79948000000002,305.445,364.59659999999997,395.963,413.10466999999994
22,UNIVERSIDAD AUTONOMA DE OCCIDENTE,0.006,0.006999999999999999,0.006999999999999999,0.006999999999999999,0.006999999999999999,0.008,0.008,121.48952,138.41315,161.31164,175.517,183.76144,210.17645,241.4270099999999
23,UNIVERSIDAD AUTONOMA DE OCCIDENTE,0.006,0.006999999999999999,0.006999999999999999,0.006999999999999999,0.006999999999999999,0.008,0.008,122.69944,136.23195,159.80124,168.049,177.11244,201.7826,229.95707999999996
